{"content": [
    {
        "genres": [],
        "id": "533c8fb1b59e38be9c04f295",
        "mainActors": [],
        "mediaType": null,
        "poster": null,
        "release": null,
        "seen": 0,
        "tagline": null,
        "title": "sleepy hollow johnny deep",
        "voteAverage": 0
    },
    {
        "genres": [],
        "id": "533c8fb9b59e38be9c04f29c",
        "mainActors": [],
        "mediaType": null,
        "poster": null,
        "release": null,
        "seen": 0,
        "tagline": null,
        "title": "le 51\u00e8me etat",
        "voteAverage": 0
    },
    {
        "genres": [],
        "id": "533c8fbcb59e38be9c04f29f",
        "mainActors": [],
        "mediaType": null,
        "poster": null,
        "release": null,
        "seen": 0,
        "tagline": null,
        "title": "l amour c est mieux a deux",
        "voteAverage": 0
    },
    {
        "genres": [],
        "id": "533c8fe5b59e38be9c04f2c5",
        "mainActors": [],
        "mediaType": null,
        "poster": null,
        "release": null,
        "seen": 0,
        "tagline": null,
        "title": "angle d attaque",
        "voteAverage": 0
    },
    {
        "genres": [],
        "id": "533c8fecb59e38be9c04f2cb",
        "mainActors": [],
        "mediaType": null,
        "poster": null,
        "release": null,
        "seen": 0,
        "tagline": null,
        "title": "attrape moi si tu peux",
        "voteAverage": 0
    },
    {
        "genres": [],
        "id": "533c8ff5b59e38be9c04f2d1",
        "mainActors": [],
        "mediaType": null,
        "poster": null,
        "release": null,
        "seen": 0,
        "tagline": null,
        "title": "hyper real steel",
        "voteAverage": 0
    },
    {
        "genres": [],
        "id": "538505f9043c93a62c3aa6ed",
        "mainActors": [],
        "mediaType": null,
        "poster": null,
        "release": null,
        "seen": 0,
        "tagline": null,
        "title": "xmen1",
        "voteAverage": 0
    },
    {
        "genres": [],
        "id": "533c8fc2b59e38be9c04f2a8",
        "mainActors": [],
        "mediaType": null,
        "poster": null,
        "release": null,
        "seen": 0,
        "tagline": null,
        "title": "wall street l argent ne dort jamais",
        "voteAverage": 0
    },
    {
        "genres": [],
        "id": "533c8fc5b59e38be9c04f2ac",
        "mainActors": [],
        "mediaType": null,
        "poster": null,
        "release": null,
        "seen": 0,
        "tagline": null,
        "title": "sex intentions 2",
        "voteAverage": 0
    },
    {
        "genres": [],
        "id": "533c8fceb59e38be9c04f2b1",
        "mainActors": [],
        "mediaType": null,
        "poster": null,
        "release": null,
        "seen": 0,
        "tagline": null,
        "title": "labyrinthedepan",
        "voteAverage": 0
    },
    {
        "genres": [],
        "id": "533c9013b59e38be9c04f2e7",
        "mainActors": [],
        "mediaType": null,
        "poster": null,
        "release": null,
        "seen": 0,
        "tagline": null,
        "title": "sex intentions 3",
        "voteAverage": 0
    },
    {
        "genres": [],
        "id": "533c9028b59e38be9c04f2f4",
        "mainActors": [],
        "mediaType": null,
        "poster": null,
        "release": null,
        "seen": 0,
        "tagline": "",
        "title": "The Cleaner",
        "voteAverage": 0
    },
    {
        "genres": [],
        "id": "533c9029b59e38be9c04f2f6",
        "mainActors": [],
        "mediaType": null,
        "poster": null,
        "release": null,
        "seen": 0,
        "tagline": null,
        "title": "lost in translation frenchdvdrip",
        "voteAverage": 0
    },
    {
        "genres": [],
        "id": "533c904cb59e38be9c04f306",
        "mainActors": [],
        "mediaType": null,
        "poster": null,
        "release": null,
        "seen": 0,
        "tagline": null,
        "title": "fwd sex friends",
        "voteAverage": 0
    },
    {
        "genres": [],
        "id": "533c904eb59e38be9c04f30a",
        "mainActors": [],
        "mediaType": null,
        "poster": null,
        "release": null,
        "seen": 0,
        "tagline": null,
        "title": "alien vs predator   fr",
        "voteAverage": 0
    },
    {
        "genres": [],
        "id": "533c908fb59e38be9c04f31b",
        "mainActors": [],
        "mediaType": null,
        "poster": null,
        "release": null,
        "seen": 0,
        "tagline": null,
        "title": "les 3 royaumes version longue partie 2",
        "voteAverage": 0
    },
    {
        "genres": [],
        "id": "533c9096b59e38be9c04f321",
        "mainActors": [],
        "mediaType": null,
        "poster": null,
        "release": null,
        "seen": 0,
        "tagline": null,
        "title": "largo winch avi",
        "voteAverage": 0
    },
    {
        "genres": [],
        "id": "533c909cb59e38be9c04f327",
        "mainActors": [],
        "mediaType": null,
        "poster": null,
        "release": null,
        "seen": 0,
        "tagline": null,
        "title": "1492 christophe colomb ii",
        "voteAverage": 0
    },
    {
        "genres": [],
        "id": "533c90a8b59e38be9c04f32d",
        "mainActors": [],
        "mediaType": null,
        "poster": null,
        "release": null,
        "seen": 0,
        "tagline": null,
        "title": "save the last dance fr",
        "voteAverage": 0
    },
    {
        "genres": [],
        "id": "533c90b2b59e38be9c04f334",
        "mainActors": [],
        "mediaType": null,
        "poster": null,
        "release": null,
        "seen": 1,
        "tagline": null,
        "title": "steven seagal piege en haute mer",
        "voteAverage": 0
    }
], "number": 2, "page": 0, "size": 10, "numberOfElements": 10, "totalPages": 5, "totalElements": 43, "first": false, "last": false}